Rectangle;blue;4.5;7.2
Square;green;2.1
Square;;3.4
Square;yellow;2.2;6.5
Quadroplane;33.3;1;2.3;3.3
Circle;fuchsia;6.8
Circle;gray;7.8;7.8
Rectangle

Sphere;marine blue;68.9
<<<<<<< HEAD
Sphere;purple;12.2.2
=======
Sphere;purple;12.2.2
>>>>>>> 37f3c7bfcfb8dac56b1734786562ed015e7b3a46
